%YAML 1.1
%TAG !u! tag:unity3d.com,2011:
--- !u!114 &11400000
MonoBehaviour:
  m_ObjectHideFlags: 0
  m_CorrespondingSourceObject: {fileID: 0}
  m_PrefabInstance: {fileID: 0}
  m_PrefabAsset: {fileID: 0}
  m_GameObject: {fileID: 0}
  m_Enabled: 1
  m_EditorHideFlags: 0
  m_Script: {fileID: 11500000, guid: 178c40e331164756b3ca87995a90d975, type: 3}
  m_Name: Wall8
  m_EditorClassIdentifier: 
  <StartingCoordinate>k__BackingField: {x: 15, y: 16}
  <Direction>k__BackingField: 1
  <TileLength>k__BackingField: 1
